{
    "alias": "obbsb",
    "description": "Payments tests - standard config",
    "server": {
        "discoveryUrl": "https://auth.mockbank.poc.raidiam.io/.well-known/openid-configuration"
    },
    "client": {
        "jwks": {
            "keys": [
                {
                    "p": "_QaFFuyZriEWtbiKexy7pIYicgU0ePMepvyNuiiFqlsUFQ24q9gp_iWECDhi8qqss__i1LW_eHQATKWfqUc6HdDY-ickJXvVktrQiT-buvJ24iTtK_NooPMKQW976NIX39_sEPJ6ceo9ZDFxTTCkmJus3eXDJmRZT2YzSZJcvcc",
                    "kty": "RSA",
                    "q": "3x1_dyovnWXSr7y7ufe6AHUV0kHBYVrGW2vdNZxKrrgBW5r2mm93NnHsrG-mJlzW7kG_jR41bWf74sucGdwXTx96riRVy8bov9SzPCDl9_QCHzPpqZOxjngfzQYq1L1qJA2BAie0Sq6YZhgLJ1fWPLutEO5soIYAkLXSJ9IVb00",
                    "d": "ZvivfZxJMbbdTQmxyE0lmE6ZuH8cMQOLyZxdaA5pNwm7ZEnPBEftZs8aR9ijhCDWMieui3h--rXwlXqbEm3g1sVgQ-WKTFV-NLKaJC1h-EU5HKdlOflstr7x57zhKp60ZIK69GyEXyJccUfzcD32u8raec9NplQ2MqS5MA1lnQFlocFoX1RNU4tSpEdJQq2UzqtX5WPhc88A6fTc1xu2fA5wyxzZu7fUjIETzLimcu-dDaEvvgm7c_A1ulm8EQuCN10k3FrIIe9RfuXHyxh9Rcd0aiIP9qwitxd5Cl0io7zby8MBIAaSei2co7y4tciBt4AfnzpBlGbtjgfr2gxD0Q",
                    "e": "AQAB",
                    "alg": "PS256",
                    "use": "sig",
                    "kid": "X5d4vFYfLxaG1gg8_l3bFYFhUaUVmE6PaEsRWX2EYqM",
                    "qi": "eHhOb5NUDfMGXwNscjEcMrMFS425qsoJAXfGJ10hm8svZOkNYgVpb7Hs7oT8XytanRl0Gk8gKH0yhvya65B5ipyby17uBMkikNN-EeYoY2AkvEfM_nO0dvHbDdF11rkM5Q_SEDlGmojxnx4_Euj8WeuSgcwiCQkR23aZlQGx1Mg",
                    "dp": "bQ9aXj8tHnj0qO8aAWapGokWX78OlvNzytYg4JSGyJ7pUQnRB4Ds2Lai6kgjniUiu5MX2kdceDbHykG5R-WDj0Ztv6UPV3jA3cOjDwVzwmiwBVmVQNRxzK31Ra8f4YJs9_o0bjmVvXQRchY9l9_Xkk_Hev2F2A540Fhk0tlbUBE",
                    "dq": "XPYDZ_kxwZjtQb-XUBLBcvNV1jcDhba2stysXGv0SfvsxOg6G3qZ5xtsiyQxzAYen0LRttCBXkZXEtXXAodLRvJMwUXuYWtNCrBqxYDHkJogUDPnBXq-Hig6x8fsDJunH8JooCc-3WcFpHQcIZZdcwyXPVi59eAfWCwJlgHYYHk",
                    "n": "3IXVqA9zCrmaz30WWjzZexdSuhagP_oVfgB-Y5S7XXeHhU4tho7c3wcNhsrGCKLYSf_47rV78-2OfhPY9WrSJVyqIXoaniwoTnD9splF90J7yog9LgP4kqkWl6wm8gdR5C-UC4Gnl0D2cZKnE6MZ7k_b5nM0ZfC-7H_bO13B4aYpu069th7hFWGK7ps65uiDxcQGYP3oSeqahE5qwfUef2QMkhyVtM_nWP9OVAzOGtJ8km4TdCrq9aF78No9u2YQuaUOJgeOnwKMBjmgEwcuaQe9DEQFXhzBtRmPlml2pTy2QDvxe1HgOTOsnh9igFvX70AGroY3PFY-lJAxC4Fd2w"
                }
            ]
        },
        "client_id": "kwv4uxKCWWJL2ZtNL8JWm",
        "org_jwks": {
            "keys": [
                {
                    "p": "_QaFFuyZriEWtbiKexy7pIYicgU0ePMepvyNuiiFqlsUFQ24q9gp_iWECDhi8qqss__i1LW_eHQATKWfqUc6HdDY-ickJXvVktrQiT-buvJ24iTtK_NooPMKQW976NIX39_sEPJ6ceo9ZDFxTTCkmJus3eXDJmRZT2YzSZJcvcc",
                    "kty": "RSA",
                    "q": "3x1_dyovnWXSr7y7ufe6AHUV0kHBYVrGW2vdNZxKrrgBW5r2mm93NnHsrG-mJlzW7kG_jR41bWf74sucGdwXTx96riRVy8bov9SzPCDl9_QCHzPpqZOxjngfzQYq1L1qJA2BAie0Sq6YZhgLJ1fWPLutEO5soIYAkLXSJ9IVb00",
                    "d": "ZvivfZxJMbbdTQmxyE0lmE6ZuH8cMQOLyZxdaA5pNwm7ZEnPBEftZs8aR9ijhCDWMieui3h--rXwlXqbEm3g1sVgQ-WKTFV-NLKaJC1h-EU5HKdlOflstr7x57zhKp60ZIK69GyEXyJccUfzcD32u8raec9NplQ2MqS5MA1lnQFlocFoX1RNU4tSpEdJQq2UzqtX5WPhc88A6fTc1xu2fA5wyxzZu7fUjIETzLimcu-dDaEvvgm7c_A1ulm8EQuCN10k3FrIIe9RfuXHyxh9Rcd0aiIP9qwitxd5Cl0io7zby8MBIAaSei2co7y4tciBt4AfnzpBlGbtjgfr2gxD0Q",
                    "e": "AQAB",
                    "alg": "PS256",
                    "use": "sig",
                    "kid": "X5d4vFYfLxaG1gg8_l3bFYFhUaUVmE6PaEsRWX2EYqM",
                    "qi": "eHhOb5NUDfMGXwNscjEcMrMFS425qsoJAXfGJ10hm8svZOkNYgVpb7Hs7oT8XytanRl0Gk8gKH0yhvya65B5ipyby17uBMkikNN-EeYoY2AkvEfM_nO0dvHbDdF11rkM5Q_SEDlGmojxnx4_Euj8WeuSgcwiCQkR23aZlQGx1Mg",
                    "dp": "bQ9aXj8tHnj0qO8aAWapGokWX78OlvNzytYg4JSGyJ7pUQnRB4Ds2Lai6kgjniUiu5MX2kdceDbHykG5R-WDj0Ztv6UPV3jA3cOjDwVzwmiwBVmVQNRxzK31Ra8f4YJs9_o0bjmVvXQRchY9l9_Xkk_Hev2F2A540Fhk0tlbUBE",
                    "dq": "XPYDZ_kxwZjtQb-XUBLBcvNV1jcDhba2stysXGv0SfvsxOg6G3qZ5xtsiyQxzAYen0LRttCBXkZXEtXXAodLRvJMwUXuYWtNCrBqxYDHkJogUDPnBXq-Hig6x8fsDJunH8JooCc-3WcFpHQcIZZdcwyXPVi59eAfWCwJlgHYYHk",
                    "n": "3IXVqA9zCrmaz30WWjzZexdSuhagP_oVfgB-Y5S7XXeHhU4tho7c3wcNhsrGCKLYSf_47rV78-2OfhPY9WrSJVyqIXoaniwoTnD9splF90J7yog9LgP4kqkWl6wm8gdR5C-UC4Gnl0D2cZKnE6MZ7k_b5nM0ZfC-7H_bO13B4aYpu069th7hFWGK7ps65uiDxcQGYP3oSeqahE5qwfUef2QMkhyVtM_nWP9OVAzOGtJ8km4TdCrq9aF78No9u2YQuaUOJgeOnwKMBjmgEwcuaQe9DEQFXhzBtRmPlml2pTy2QDvxe1HgOTOsnh9igFvX70AGroY3PFY-lJAxC4Fd2w"
                }
            ]
        }
    },
    "mtls": {
        "cert": "-----BEGIN CERTIFICATE-----\nMIIG+jCCBeKgAwIBAgIUHSAsN2m3+9uMe+FnLdtAks1Q1k8wDQYJKoZIhvcNAQEL\nBQAwcTELMAkGA1UEBhMCQlIxHDAaBgNVBAoTE09wZW4gQmFua2luZyBCcmFzaWwx\nFTATBgNVBAsTDE9wZW4gQmFua2luZzEtMCsGA1UEAxMkT3BlbiBCYW5raW5nIFNB\nTkRCT1ggSXNzdWluZyBDQSAtIEcxMB4XDTIxMDcxMzExMTAwMFoXDTIyMDgxMjEx\nMTAwMFowggEdMQswCQYDVQQGEwJCUjELMAkGA1UECBMCUlMxETAPBgNVBAcTCEJP\nVEFGT0dPMRwwGgYDVQQKExNPcGVuIEJhbmtpbmcgQnJhc2lsMS0wKwYDVQQLEyQ3\nNGU5MjlkOS0zM2I2LTRkODUtOGJhNy1jMTQ2Yzg2N2E4MTcxHzAdBgNVBAMTFm1v\nY2stdHBwLTEucmFpZGlhbS5jb20xFjAUBgNVBAUTDTEzMzUzMjM2MDAxODkxNDAy\nBgoJkiaJk/IsZAEBEyQxMDEyMDM0MC0zMzE4LTRiYWYtOTllMi0wYjU2NzI5YzRh\nYjIxHTAbBgNVBA8TFFByaXZhdGUgT3JnYW5pemF0aW9uMRMwEQYLKwYBBAGCNzwC\nAQMTAkJSMIIBIjANBgkqhkiG9w0BAQEFAAOCAQ8AMIIBCgKCAQEAqEkJqJ6j5rhf\n0CnJ4dQ+aVxLo49qI8SVsXJlpIIxwr9peeSp3ebAaRzYZhlGwI8+pV3T0zena7r4\nuvaGOGFO98WTGioav3sJZlsCPkil7P4ERltD6yNRfRULOkSai8P98tu0s7wFZRYu\ndHJJ1I8lDKZ89hV+BBdVn4V3WgKmdaalmRBRQggqV/g1JaZ7WZrusFqHz0sxIAs3\n+Bkr1O4Yn59yr/X3pNydTuYf/ZTU/AzC06jmT3zhAetsJ6j61Pg6qByo/2e5NNBI\nWQ1HDKl53IJwIC3UwnoWaFjJWkge2It6Tq0Ch3tyOQ6t8/smGLnDaXpVNEQ1PYdg\nAssTovF4SQIDAQABo4IC2jCCAtYwDAYDVR0TAQH/BAIwADAfBgNVHSMEGDAWgBSG\nf1itF/WCtk60BbP7sM4RQ99MvjBMBggrBgEFBQcBAQRAMD4wPAYIKwYBBQUHMAGG\nMGh0dHA6Ly9vY3NwLnNhbmRib3gucGtpLm9wZW5iYW5raW5nYnJhc2lsLm9yZy5i\ncjBLBgNVHR8ERDBCMECgPqA8hjpodHRwOi8vY3JsLnNhbmRib3gucGtpLm9wZW5i\nYW5raW5nYnJhc2lsLm9yZy5ici9pc3N1ZXIuY3JsMA4GA1UdDwEB/wQEAwIFoDAT\nBgNVHSUEDDAKBggrBgEFBQcDAjAdBgNVHQ4EFgQURL6C6Jj00rC26EmzYhyC5++Z\nBzowIQYDVR0RBBowGIIWbW9jay10cHAtMS5yYWlkaWFtLmNvbTCCAaEGA1UdIASC\nAZgwggGUMIIBkAYKKwYBBAGDui9kATCCAYAwggE2BggrBgEFBQcCAjCCASgMggEk\nVGhpcyBDZXJ0aWZpY2F0ZSBpcyBzb2xlbHkgZm9yIHVzZSB3aXRoIFJhaWRpYW0g\nU2VydmljZXMgTGltaXRlZCBhbmQgb3RoZXIgcGFydGljaXBhdGluZyBvcmdhbmlz\nYXRpb25zIHVzaW5nIFJhaWRpYW0gU2VydmljZXMgTGltaXRlZHMgVHJ1c3QgRnJh\nbWV3b3JrIFNlcnZpY2VzLiBJdHMgcmVjZWlwdCwgcG9zc2Vzc2lvbiBvciB1c2Ug\nY29uc3RpdHV0ZXMgYWNjZXB0YW5jZSBvZiB0aGUgUmFpZGlhbSBTZXJ2aWNlcyBM\ndGQgQ2VydGljaWNhdGUgUG9saWN5IGFuZCByZWxhdGVkIGRvY3VtZW50cyB0aGVy\nZWluLjBEBggrBgEFBQcCARY4aHR0cDovL2Nwcy5zYW5kYm94LnBraS5vcGVuYmFu\na2luZ2JyYXNpbC5vcmcuYnIvcG9saWNpZXMwDQYJKoZIhvcNAQELBQADggEBAKbg\n8tEwxFQXdlb/vflL/idn7KAeMJ+kasct8lvsGgwo2D5i29Aj+WEFvA+3AWSZCPC7\nw1ovimv9Ui9s6M5QsV6wiwdhQY2m2u+/1dgHdQP948kTs50xUWKIfRh4R5/LIdQD\nXo8W3sf+8CY9fgTMahcdGSvEMxPDyJ2ZK4ejbn/VVK+dqkN9/iadBLK8WYt3HAnN\n6qFNxrwej2rhsInczWdrBvwzQHauMveOE0pO4MP4P/fA9vY3mrf6CiQWIlJyyKt9\nQ2xg5mOZxZod/GaZD1mkVLjVgGIPj2ZSAZzvt2ZM7xnQZyJxPxQm5tV90XNpkvQB\nVKM+2aq4W3805WGlPhQ=\n-----END CERTIFICATE-----",
        "key": "-----BEGIN PRIVATE KEY-----\nMIIEvgIBADANBgkqhkiG9w0BAQEFAASCBKgwggSkAgEAAoIBAQCoSQmonqPmuF/Q\nKcnh1D5pXEujj2ojxJWxcmWkgjHCv2l55Knd5sBpHNhmGUbAjz6lXdPTN6druvi6\n9oY4YU73xZMaKhq/ewlmWwI+SKXs/gRGW0PrI1F9FQs6RJqLw/3y27SzvAVlFi50\ncknUjyUMpnz2FX4EF1WfhXdaAqZ1pqWZEFFCCCpX+DUlpntZmu6wWofPSzEgCzf4\nGSvU7hifn3Kv9fek3J1O5h/9lNT8DMLTqOZPfOEB62wnqPrU+DqoHKj/Z7k00EhZ\nDUcMqXncgnAgLdTCehZoWMlaSB7Yi3pOrQKHe3I5Dq3z+yYYucNpelU0RDU9h2AC\nyxOi8XhJAgMBAAECggEBAJWW1w8cdXVRz1mqy9oCYLgnYtUxVpgU1zu1BMUHNlR2\n8bt4l8a4p7DIA1Q+g7YHnxhAH1tRzXDl8tO+7/CODzQQXIKVitFK/UAPBh93VIcm\nBYbE+cq6ymT1n9VbxkUXI1YOFsLuD52b6g94yEg6NiTYmZvl3u6kD2iNq1pHoNBS\nsSGFIPcIELFq3R6MS97qHkDSCHv6OETZjQVvfWXftrHjjpfHZEoyJgApMk8DH32A\nYs1F59zFYdizUEUBYMbO/UfYaZ0iDMTyarcYvDlyw4m3v9Y17MJYDCFHwU+Px/bF\nneC+XlaGBrW7fpQtyTjMzQnHKJ9zD1XZ/TIMnGckj0ECgYEA1Nxjo3CCi80t0XPj\nZpwRy8fgkKSlu3FWc+ra8e6ikJWpif69ZTBPtboTZHPgUga+fmog6Wjemug4NfKd\n4Z1tJvECyk/Gd3oxg1c6Uad485NRaGn+GBWLM2fNOfG263vCi9qo0IVn6HXKLDud\n4LpjVA1YZ6LNf0N/9KiaAtsgVf8CgYEAymP8VGaKS9DE12JFHADd326ymEGgPPIy\nMPeIUiISUFiXwuLDc8sA/HQP5Egm6b/M0xUM2hXhASJlVrluNfAb5fvE7bVGF00U\nineUKCZWJ2HkI5BDjS4AeJTiB9FlJz2B5cbtxTdsNi6xMAVewkfz1Y/uzURIK7UV\nd9CNG82CAbcCgYBjg5F1hJETqN3l0Scb/pT3Tz+2f7MXubnwQXkQqD8KF14GrLiA\nySBK1m5ghSf3UT3XvegbFzMS+sPkvMOBCedQ0FY8nSUtEEx7mdki+Ye7YEEr7nmj\natcENmAk2dNprhda6OQJcIUOkZruKQT7Xkg3sHGHKf6mo7j7eaNe+HDaowKBgGz0\nULXbEd5owF83Dv9ZVBhhjpG62pmUxQJpb6DPqM5KM0D+NLxUb+54SMnbMd+qmoiU\nD3wkRSIIM0fxwWwWG96+oDBb4yTOIR297CuFH+JJp7ihhEwvlJ9Vfy04Q91RFmnt\norkF8iJlFoxEh9PNSm4Q8zzb4oJtFOaQhjaOdsuXAoGBAITXGjnzPjZwc4hPw2zm\nz+NinOokIfgp9ZC/TDI0ciS/S9ufUi7tyZQdOcoI5vfaRxromnAEsOh5w7akKpAc\n77PkBqfOFBSWNg7VGfuEfzcxHkFghOpqz/HLNwGfmwg26/RQby1vPrEdajwCHuB9\nhH4trXJ+siF/lb0Ux3id2h6m\n-----END PRIVATE KEY-----",
        "ca": "-----BEGIN CERTIFICATE-----\nMIIEajCCA1KgAwIBAgIUdIYzEFdw7QJcrySyq6IiEwZfTfAwDQYJKoZIhvcNAQEL\nBQAwazELMAkGA1UEBhMCQlIxHDAaBgNVBAoTE09wZW4gQmFua2luZyBCcmFzaWwx\nFTATBgNVBAsTDE9wZW4gQmFua2luZzEnMCUGA1UEAxMeT3BlbiBCYW5raW5nIFJv\nb3QgU0FOREJPWCAtIEcxMB4XDTIwMTIxMTEwMDAwMFoXDTIzMTIxMTEwMDAwMFow\ncTELMAkGA1UEBhMCQlIxHDAaBgNVBAoTE09wZW4gQmFua2luZyBCcmFzaWwxFTAT\nBgNVBAsTDE9wZW4gQmFua2luZzEtMCsGA1UEAxMkT3BlbiBCYW5raW5nIFNBTkRC\nT1ggSXNzdWluZyBDQSAtIEcxMIIBIjANBgkqhkiG9w0BAQEFAAOCAQ8AMIIBCgKC\nAQEA6fX+272mHX5QAcDaWkVHFWjnDIcORNUJU3OuNyeuOYhlvXJWydrXe3O+cV+P\nS39faMj/nfem3GfJBE7Xn0bWA/8ksxSfrg1BUBJDge4YBBw+VflI3A0g1fk9wJ3H\nGInsvV4serRJ/ISJTfs0uRNugX+RrbkT/T0tup4vGd3Kl2sbwUdDjokuJNJHANeO\nDRkQ+ra+9Wht71FBlc07yPf7qtpaWHm6aS3s47OJD35ixkG4xiZuHsScxcVtlo1V\nW98P2cQfH9H2lll4wWlPTVHpPThB2EYrPhwcxDh8kHkkOHNkyHO/fYM47u7H4VeQ\nV75LXWKa7iWmZg+WhFb8TXSr/wIDAQABo4H/MIH8MA4GA1UdDwEB/wQEAwIBBjAP\nBgNVHRMBAf8EBTADAQH/MB0GA1UdDgQWBBSGf1itF/WCtk60BbP7sM4RQ99MvjAf\nBgNVHSMEGDAWgBSHE+yWPmLsIRwMSlY68iUM45TpyzBMBggrBgEFBQcBAQRAMD4w\nPAYIKwYBBQUHMAGGMGh0dHA6Ly9vY3NwLnNhbmRib3gucGtpLm9wZW5iYW5raW5n\nYnJhc2lsLm9yZy5icjBLBgNVHR8ERDBCMECgPqA8hjpodHRwOi8vY3JsLnNhbmRi\nb3gucGtpLm9wZW5iYW5raW5nYnJhc2lsLm9yZy5ici9pc3N1ZXIuY3JsMA0GCSqG\nSIb3DQEBCwUAA4IBAQBy4928pVPeiHItbneeOAsDoc4Obv5Q4tn0QpqTlSeCSBbH\nIURfEr/WaS8sv0JTbIPQEfiO/UtaN8Qxh7j5iVqTwTwgVaE/vDkHxGOen5YxAuyV\n1Fpm4W4oQyybiA6puHEBcteuiYZHppGSMus3bmFYTPE+9B0+W914VZeHDujJ2Y3Y\nMc32Q+PC+Zmv8RfaXp7+QCNYSXR5Ts3q3IesWGmlvAM5tLQi75JmzdWXJ1uKU4u3\nNrw5jY4UaOlvB5Re2BSmcjxdLT/5pApzkS+tO6lICnPAtk/Y6dOJ0YxQBMImtliY\np02yfwRaqP8WJ4CnwUHil3ZRt8U9I+psU8b4WV/3\n-----END CERTIFICATE-----\n-----BEGIN CERTIFICATE-----\nMIIDpjCCAo6gAwIBAgIUS3mWeRx1uG/SMl/ql55VwRtNz7wwDQYJKoZIhvcNAQEL\nBQAwazELMAkGA1UEBhMCQlIxHDAaBgNVBAoTE09wZW4gQmFua2luZyBCcmFzaWwx\nFTATBgNVBAsTDE9wZW4gQmFua2luZzEnMCUGA1UEAxMeT3BlbiBCYW5raW5nIFJv\nb3QgU0FOREJPWCAtIEcxMB4XDTIwMTIxMTEwMDAwMFoXDTI1MTIxMDEwMDAwMFow\nazELMAkGA1UEBhMCQlIxHDAaBgNVBAoTE09wZW4gQmFua2luZyBCcmFzaWwxFTAT\nBgNVBAsTDE9wZW4gQmFua2luZzEnMCUGA1UEAxMeT3BlbiBCYW5raW5nIFJvb3Qg\nU0FOREJPWCAtIEcxMIIBIjANBgkqhkiG9w0BAQEFAAOCAQ8AMIIBCgKCAQEAp50j\njNh0wu8ioziC1HuWqOfgXwxeiePiRGw5tKDqKIbC7XV1ghEcDiymTHHWWJSQ1LEs\nmYpZVwaos5Mrz2xJwytg8K5eqFqa7QvfOOul29bnzEFk+1gX/0nOYws3Lba9E7S+\nuPaUmfElF4r2lcCNL2f3F87RozqZf+DQBdGUzAt9n+ipY1JpqfI3KF/5qgRkPoIf\nJD+aj2Y1D6eYjs5uMRLU8FMYt0CCfv/Ak6mq4Y9/7CaMKp5qjlrrDux00IDpxoXG\nKx5cK0KgACb2UBZ98oDQxcGrbRIyp8VGmv68BkEQcm7NljP863uBVxtnVTpRwQ1x\nwYEbmSSyoonXy575wQIDAQABo0IwQDAOBgNVHQ8BAf8EBAMCAQYwDwYDVR0TAQH/\nBAUwAwEB/zAdBgNVHQ4EFgQUhxPslj5i7CEcDEpWOvIlDOOU6cswDQYJKoZIhvcN\nAQELBQADggEBAFoYqwoH7zvr4v0SQ/hWx/bWFRIcV/Rf6rEWGyT/moVAEjPbGH6t\nyHhbxh3RdGcPY7Pzn797lXDGRu0pHv+GAHUA1v1PewCp0IHYukmN5D8+Qumem6by\nHyONyUASMlY0lUOzx9mHVBMuj6u6kvn9xjL6xsPS+Cglv/3SUXUR0mMCYf963xnF\nBIRLTRlbykgJomUptVl/F5U/+8cD+lB/fcZPoQVI0kK0VV51jAODSIhS6vqzQzH4\ncpUmcPh4dy+7RzdTTktxOTXTqAy9/Yx+fk18O9qSQw1MKa9dDZ4YLnAQS2fJJqIE\n1DXIta0LpqM4pMoRMXvp9SLU0atVZLEu6Sc=\n-----END CERTIFICATE-----\n"
    },
    "directory": {
        "keystore": "https://keystore.sandbox.directory.openbankingbrasil.org.br/",
        "client_id": "QjRzruzFWi_U_tMahlz01"
    },
    "resource": {
        "consentUrl": "https://matls-api.mockbank.poc.raidiam.io/open-banking/payments/v1/consents",
        "brazilPaymentConsent": {
            "data": {
                "loggedUser": {
                    "document": {
                        "identification": "76109277673",
                        "rel": "CPF"
                    }
                },
                "creditor": {
                    "personType": "PESSOA_NATURAL",
                    "cpfCnpj": "48847377765",
                    "name": "Marco Antonio de Brito"
                },
                "payment": {
                    "type": "PIX",
                    "date": "2021-01-01",
                    "currency": "BRL",
                    "amount": "1333.00",
                    "details": {
                        "localInstrument": "DICT",
                        "proxy": "12345678901",
                        "creditorAccount": {
                            "ispb": "12345678",
                            "issuer": "1774",
                            "number": "1234567890",
                            "accountType": "CACC"
                        }
                    }
                },
                "debtorAccount": {
                    "ispb": "12345678",
                    "issuer": "6272",
                    "number": "94088392",
                    "accountType": "CACC"
                }
            }
        },
        "brazilOrganizationId": "74e929d9-33b6-4d85-8ba7-c146c867a817",
        "brazilQrdnPaymentConsent": {
            "data": {
                "loggedUser": {
                    "document": {
                        "identification": "76109277673",
                        "rel": "CPF"
                    }
                },
                "creditor": {
                    "personType": "PESSOA_NATURAL",
                    "cpfCnpj": "48847377765",
                    "name": "Marco Antonio de Brito"
                },
                "payment": {
                    "type": "PIX",
                    "date": "2021-01-01",
                    "currency": "BRL",
                    "amount": "1333.00",
                    "igbeTownCode": "oiweowew",
                    "details": {
                        "localInstrument": "QRDN",
                        "proxy": "12345678902",
                        "qrCode": "00020126510014BR.GOV.BCB.PIX0129cliente-a00001@pix.bcb.gov.br5204000053039865802BR5910JOAO SILVA6014BELO HORIZONTE62070503***63042A73",
                        "creditorAccount": {
                            "ispb": "12345678",
                            "issuer": "1774",
                            "number": "1234567890",
                            "accountType": "CACC"
                        }
                    }
                },
                "debtorAccount": {
                    "ispb": "12345678",
                    "issuer": "6272",
                    "number": "94088392",
                    "accountType": "CACC"
                }
            }
        },
        "brazilQrdnCnpj": "43142666000197"
    },
    "client2": {
        "client_id": "QqLqA-tH9RpP5Al5n55LZ",
        "jwks": {
            "keys": [
                {
                    "p": "_uuGZO8dk21jYVKeZ37BepkwzpWr3-KFZqvSkMaX7iPqIYBD1Ee0utzuGlV395HylJ9UPq3fhm7qemzNnkBUCxBM950vDQEN4ySDkQUftDw4r9WMrbxpz8XpBwkXuo6qTE9iRgXa9IP7ij3Pr6Qz64JmTvpnYjHSi1g4q73j9Nc",
                    "kty": "RSA",
                    "q": "zDafMjBVbeGfeo2y_kv0rXCX80vEEZCL_F3DClRvZoQgZVfHTk5axSUGsjIg7DpKG_qI6hKLMxXcUhKbw3Lzxfix10DjL4U9RIQLC1OKS4hVGvyRhkmqQjrVrUoj1Qqel6IKo2mVG_b6V1ar4XxvmNmeB3NV9Zjh2Zd0kDFT4uU",
                    "d": "B70PyvjAuBNj1RbZcIYZYlWPD27H-wRNCoXofgU1EVaqcIGiGAx3QKIABgesHRylggaRnRlatHNG_Q_-pam-R8wSH4r9kXCLdG233WoBBE5V9bqjCORuO8R_IKl5CNqVF_ADPAJPL0cJTLBy2q0jhsfnYLTto0KxnTWIgUEkxHjts6dQrrC1TZL1K_670sRJsF0lld1bCjVePcmHzwKPyGBg9RU9kDm782TsGjyeh_uCpOqZtSsviiw2OChkTEYu83Th045xwe7YjTUQKkL-ezLHwJs2iuLJWE2YqoshzLV0ja3U7laMt_Gm_a4HiUJtKdTlOvw87d3GsmWEoKBU0Q",
                    "e": "AQAB",
                    "kid": "XCB0CnPSpt3Zy8J84Omx63a_oIemAR1gXDfVNn833Zc",
                    "qi": "qjzKeV4CX4dmoRB2xRlRKMzZYMkNV-cY9GzODR56WlZaUUOS9BTiCwsSDvy7KdtBstPvLKAyeWyezBLBLkaDZQHA713QwErw5_hDaEHulznNIAHOgH7ATq5GhLMWRsNXBiSlK6bP85D86bO4zIjkWUtQn9qHzXeMStCsN58Vrls",
                    "dp": "QNZs920uK5pOBan66j3-Pg2KsXC2J5q47XVUeEhaylJOMbkrB2o5mLGqyf3lJo3zkkO4LL0StmGtt_fGkLKx7aJ2wSA0oG0dOCHIaPFRsAkFLgv13RaoHxWqgISaiXPR8tjaGQ9SMpEDQJUaJwVvwz4GgZ4E_5_GenS07VG-Ej8",
                    "dq": "E4P4zLwPvfN84SJfg6vQky6aZtbLwv30UsbHF9qf1sUzr1unIVWdmQ-Dx03BFbIwWOIlaXEiOlyRdIpwtknq__VXUYHS9DygcUbJI2j1Y2iA8ZZHdfTeP3wN5YSbTgW4yDblG17AsC53GBehT2gr5giN8JpWEaVtl_TAX_NG1_0",
                    "n": "y1oTTQpwLMPW_ZtBbI1v7dNjqzKlpoVyOjH9h3ZcO4HtcE10-_OcVyw0jto9qxY8OEIRNeLUDBxF1Zr3V7M2-KVAoKc46QTQREcPt-3F7xl7zFPWe4gE8oaPAK1w8culG9P7fFxMiCG6LByxsZPU4VpYVqo5FztrW62l9RVaShYipdgGL89i2gVmItK2oDo01VCn6YpQP_3uI6IWVjDhlWBFTOAXCPPNuV9LUHKUNLw9rlDNk_XH0sMkz75ratyS__IBnqngl5mgYEEmpPJWoFi4E4AKXAb0jXeRPAONHnF2buYY4BcTZ7N2WUIBJPIwArh9Au7PSGqL9ab5o8TSUw",
                    "alg": "PS256"
                }
            ]
        },
        "org_jwks": {
            "keys": [
                {
                    "p": "_QaFFuyZriEWtbiKexy7pIYicgU0ePMepvyNuiiFqlsUFQ24q9gp_iWECDhi8qqss__i1LW_eHQATKWfqUc6HdDY-ickJXvVktrQiT-buvJ24iTtK_NooPMKQW976NIX39_sEPJ6ceo9ZDFxTTCkmJus3eXDJmRZT2YzSZJcvcc",
                    "kty": "RSA",
                    "q": "3x1_dyovnWXSr7y7ufe6AHUV0kHBYVrGW2vdNZxKrrgBW5r2mm93NnHsrG-mJlzW7kG_jR41bWf74sucGdwXTx96riRVy8bov9SzPCDl9_QCHzPpqZOxjngfzQYq1L1qJA2BAie0Sq6YZhgLJ1fWPLutEO5soIYAkLXSJ9IVb00",
                    "d": "ZvivfZxJMbbdTQmxyE0lmE6ZuH8cMQOLyZxdaA5pNwm7ZEnPBEftZs8aR9ijhCDWMieui3h--rXwlXqbEm3g1sVgQ-WKTFV-NLKaJC1h-EU5HKdlOflstr7x57zhKp60ZIK69GyEXyJccUfzcD32u8raec9NplQ2MqS5MA1lnQFlocFoX1RNU4tSpEdJQq2UzqtX5WPhc88A6fTc1xu2fA5wyxzZu7fUjIETzLimcu-dDaEvvgm7c_A1ulm8EQuCN10k3FrIIe9RfuXHyxh9Rcd0aiIP9qwitxd5Cl0io7zby8MBIAaSei2co7y4tciBt4AfnzpBlGbtjgfr2gxD0Q",
                    "e": "AQAB",
                    "alg": "PS256",
                    "use": "sig",
                    "kid": "X5d4vFYfLxaG1gg8_l3bFYFhUaUVmE6PaEsRWX2EYqM",
                    "qi": "eHhOb5NUDfMGXwNscjEcMrMFS425qsoJAXfGJ10hm8svZOkNYgVpb7Hs7oT8XytanRl0Gk8gKH0yhvya65B5ipyby17uBMkikNN-EeYoY2AkvEfM_nO0dvHbDdF11rkM5Q_SEDlGmojxnx4_Euj8WeuSgcwiCQkR23aZlQGx1Mg",
                    "dp": "bQ9aXj8tHnj0qO8aAWapGokWX78OlvNzytYg4JSGyJ7pUQnRB4Ds2Lai6kgjniUiu5MX2kdceDbHykG5R-WDj0Ztv6UPV3jA3cOjDwVzwmiwBVmVQNRxzK31Ra8f4YJs9_o0bjmVvXQRchY9l9_Xkk_Hev2F2A540Fhk0tlbUBE",
                    "dq": "XPYDZ_kxwZjtQb-XUBLBcvNV1jcDhba2stysXGv0SfvsxOg6G3qZ5xtsiyQxzAYen0LRttCBXkZXEtXXAodLRvJMwUXuYWtNCrBqxYDHkJogUDPnBXq-Hig6x8fsDJunH8JooCc-3WcFpHQcIZZdcwyXPVi59eAfWCwJlgHYYHk",
                    "n": "3IXVqA9zCrmaz30WWjzZexdSuhagP_oVfgB-Y5S7XXeHhU4tho7c3wcNhsrGCKLYSf_47rV78-2OfhPY9WrSJVyqIXoaniwoTnD9splF90J7yog9LgP4kqkWl6wm8gdR5C-UC4Gnl0D2cZKnE6MZ7k_b5nM0ZfC-7H_bO13B4aYpu069th7hFWGK7ps65uiDxcQGYP3oSeqahE5qwfUef2QMkhyVtM_nWP9OVAzOGtJ8km4TdCrq9aF78No9u2YQuaUOJgeOnwKMBjmgEwcuaQe9DEQFXhzBtRmPlml2pTy2QDvxe1HgOTOsnh9igFvX70AGroY3PFY-lJAxC4Fd2w"
                }
            ]
        }
    },
    "mtls2": {
        "cert": "-----BEGIN CERTIFICATE-----\nMIIG+jCCBeKgAwIBAgIUXU6XaJxR7dm6HZ6SWwucLWDwDGcwDQYJKoZIhvcNAQEL\nBQAwcTELMAkGA1UEBhMCQlIxHDAaBgNVBAoTE09wZW4gQmFua2luZyBCcmFzaWwx\nFTATBgNVBAsTDE9wZW4gQmFua2luZzEtMCsGA1UEAxMkT3BlbiBCYW5raW5nIFNB\nTkRCT1ggSXNzdWluZyBDQSAtIEcxMB4XDTIxMDcxMzIwMTMwMFoXDTIyMDgxMjIw\nMTMwMFowggEdMQswCQYDVQQGEwJCUjELMAkGA1UECBMCUlMxETAPBgNVBAcTCEJP\nVEFGT0dPMRwwGgYDVQQKExNPcGVuIEJhbmtpbmcgQnJhc2lsMS0wKwYDVQQLEyQ3\nNGU5MjlkOS0zM2I2LTRkODUtOGJhNy1jMTQ2Yzg2N2E4MTcxHzAdBgNVBAMTFm1v\nY2stdHBwLTEucmFpZGlhbS5jb20xFjAUBgNVBAUTDTEzMzUzMjM2MDAxODkxNDAy\nBgoJkiaJk/IsZAEBEyQ5ZTM1Nzk5NS1hMTkxLTQ4NjAtOWRiNy1jZWRhMzY5MmE4\nYzkxHTAbBgNVBA8TFFByaXZhdGUgT3JnYW5pemF0aW9uMRMwEQYLKwYBBAGCNzwC\nAQMTAkJSMIIBIjANBgkqhkiG9w0BAQEFAAOCAQ8AMIIBCgKCAQEA5AX5rOlxGE68\nPsSzYTnOp5UPZ1IO0BX+/be5dVZzmyYj3TCjCDloa98zOEDHhrBQtcWs06dPfsLY\nD2oyehzKMmxKBUvBynmS+yWgb9gGYIOLO47IUkhaVk4ZXwUCo6u7tMXWpdSGGUrt\nHrIgnVy91MkRL0RizVyxW8it0BDsJso+rSyI+vV2uHYDJt6Orz6QKMoIQ0kWm17g\ndFXKzkIv20wJFmFDSqQ8s4xpZCtNdv9eKZPVSVYXIBAMLK9ZZAz/4YF/kwtIy5Xp\niTmaUUd4IQ8zqA5k1f1g20vydZRFoxWhihv+oXQwZMDiCBOuZdv11DC6LGsa70p/\nKj90LcjmRQIDAQABo4IC2jCCAtYwDAYDVR0TAQH/BAIwADAfBgNVHSMEGDAWgBSG\nf1itF/WCtk60BbP7sM4RQ99MvjBMBggrBgEFBQcBAQRAMD4wPAYIKwYBBQUHMAGG\nMGh0dHA6Ly9vY3NwLnNhbmRib3gucGtpLm9wZW5iYW5raW5nYnJhc2lsLm9yZy5i\ncjBLBgNVHR8ERDBCMECgPqA8hjpodHRwOi8vY3JsLnNhbmRib3gucGtpLm9wZW5i\nYW5raW5nYnJhc2lsLm9yZy5ici9pc3N1ZXIuY3JsMA4GA1UdDwEB/wQEAwIFoDAT\nBgNVHSUEDDAKBggrBgEFBQcDAjAdBgNVHQ4EFgQUX7Z4hKwMMVZVlayEWFBdvq4q\nLEwwIQYDVR0RBBowGIIWbW9jay10cHAtMS5yYWlkaWFtLmNvbTCCAaEGA1UdIASC\nAZgwggGUMIIBkAYKKwYBBAGDui9kATCCAYAwggE2BggrBgEFBQcCAjCCASgMggEk\nVGhpcyBDZXJ0aWZpY2F0ZSBpcyBzb2xlbHkgZm9yIHVzZSB3aXRoIFJhaWRpYW0g\nU2VydmljZXMgTGltaXRlZCBhbmQgb3RoZXIgcGFydGljaXBhdGluZyBvcmdhbmlz\nYXRpb25zIHVzaW5nIFJhaWRpYW0gU2VydmljZXMgTGltaXRlZHMgVHJ1c3QgRnJh\nbWV3b3JrIFNlcnZpY2VzLiBJdHMgcmVjZWlwdCwgcG9zc2Vzc2lvbiBvciB1c2Ug\nY29uc3RpdHV0ZXMgYWNjZXB0YW5jZSBvZiB0aGUgUmFpZGlhbSBTZXJ2aWNlcyBM\ndGQgQ2VydGljaWNhdGUgUG9saWN5IGFuZCByZWxhdGVkIGRvY3VtZW50cyB0aGVy\nZWluLjBEBggrBgEFBQcCARY4aHR0cDovL2Nwcy5zYW5kYm94LnBraS5vcGVuYmFu\na2luZ2JyYXNpbC5vcmcuYnIvcG9saWNpZXMwDQYJKoZIhvcNAQELBQADggEBABQt\nKDrPGJmvyXhcNBr21T7sL79TVTI8g7EHlawX3a+E2Np/DV2qLCdpAQwCJ4c9EKjj\nz1I7u5xLCT83EpKn10qwOeJSRWUCfOLrr7FcqEgvIysH2i2cYRvT4gHCHyhE/Naq\njL6L+NdW8TGzPGPjMOYcWk/mN/zDhARPtKHRxX04JI3uRu5DEAWlN3Nyo+xokeYI\n6eMmhgHzgaHXn+0pHQK/Mh2m0FYVskuJW0pinXJ8ImXjY0sdBVbktIt4bvrledhg\ng5z5jVENzh5KjUP1bOLXm/Bt/JSU0T8z7unTX+DLd+EAKfVjfs+ap2uy3YceyR5S\nZ/oJrI9TNCN4uc/4gVw=\n-----END CERTIFICATE-----",
        "key": "-----BEGIN PRIVATE KEY-----\nMIIEvAIBADANBgkqhkiG9w0BAQEFAASCBKYwggSiAgEAAoIBAQDkBfms6XEYTrw+\nxLNhOc6nlQ9nUg7QFf79t7l1VnObJiPdMKMIOWhr3zM4QMeGsFC1xazTp09+wtgP\najJ6HMoybEoFS8HKeZL7JaBv2AZgg4s7jshSSFpWThlfBQKjq7u0xdal1IYZSu0e\nsiCdXL3UyREvRGLNXLFbyK3QEOwmyj6tLIj69Xa4dgMm3o6vPpAoyghDSRabXuB0\nVcrOQi/bTAkWYUNKpDyzjGlkK012/14pk9VJVhcgEAwsr1lkDP/hgX+TC0jLlemJ\nOZpRR3ghDzOoDmTV/WDbS/J1lEWjFaGKG/6hdDBkwOIIE65l2/XUMLosaxrvSn8q\nP3QtyOZFAgMBAAECggEAJGaHywChGz5Gcsa31AeEY+A5y0agMruwLxSLOJ4KanQW\nOZMwE3oGn2HMLWi58VhoKfxacJc+639zOlK7qB68cHw0/M9xKj9qJUmGaRRVQEb/\njQxoEiqWsTxadH66QyKBHoSOlX5twc/iNoo9BqHtc/B9G8yQ8TOg5IQOqy5oZHCL\nmK5E/xQkL99B0MZfA3G7M5h/fThpmLJEXnVmS6LNwZ2yKF+0eSHSFa4mhg2zmFxl\nQ41/A04A3OwmHg3QSgL4qiEVTuqoYp3anF1vUl7P6nKN1C8pDR3hngDmgv5thjw1\nzWBCamiDDU8dG9fKVqt8hHQn8wJNXi92wKYzomqQKQKBgQDzeBMogynPsaXRDjHL\n1R+xghHcUC1dYNyeRDrv8IHGht0BP998IuCSr+zctqSE1PogUw7uCERRxlkjNR9X\nePYGoH79QDaxQnVydJiUO6BWIeP4IMYnNC5B64XYiIniolyZNh0bc3go75syEem9\nJ6rhGdQQoCOqBV5L1lnPF9ooQwKBgQDvwmOslYXJFnzDJp4ut9hVMrE+preGgCcC\nmS7BMmOjT/HZo0VqWLI2SRxjUcKlDX2kBh5Dri22AoeC+SFZFT6MfAlTSwzKf7mE\nMN2eMRq4QfWKJ8coiFaEY9gyM8iNEvvI0L1c+PX5UZCC0P9DWfHGFZ3jXYlBPDe9\nSLcx3jwy1wKBgBuEU639fQlDS7lgAFLISKe4Sqp6yVXHb8fXcE3UAebdMTdF781I\n59bMWVnsrpVwuMBUgth2SLpxT3vCMkOhoTTIiPG4gzXvi/SepuwB/TIe7HQLyDmA\nFUZQBzWc4PCjZxHN4uZKW6dMxV6YVbGSPSbp02T5pG4/4xNxK39Tc82fAoGATMZY\nmJlAwAW9adhh6t/gHFghPcixGBbNZx2aRS9XjKI69dA8mDNSzeNXfc5en+/T/cQf\nyNhrts7UifIw5Y/R+bZ2Xf+4VtfTlir3rIJY5gvpDpZyRd5ype46+shuPg6IJeQB\n31Wxnmap+dnnA7A3pZCigH4hR4x65Nf2IbfiWv0CgYB9GvNK6OQpE4+KME7HAYDN\ngZhtj9Z3+K/SmiaSiyYHKIZhhRwuRUzJF/4XxWTwObXgGW9yE0V/q1GM59DQ1tTs\n+UF3wUmogCddoi/sxkOrNxdaLPfdwlRu4v6P2XyQ2sioAa6dwDrCeDrU4B7LC3Bt\num81TeyPckWpnOnrx6+Hew==\n-----END PRIVATE KEY-----",
        "ca": "-----BEGIN CERTIFICATE-----\nMIIEajCCA1KgAwIBAgIUdIYzEFdw7QJcrySyq6IiEwZfTfAwDQYJKoZIhvcNAQEL\nBQAwazELMAkGA1UEBhMCQlIxHDAaBgNVBAoTE09wZW4gQmFua2luZyBCcmFzaWwx\nFTATBgNVBAsTDE9wZW4gQmFua2luZzEnMCUGA1UEAxMeT3BlbiBCYW5raW5nIFJv\nb3QgU0FOREJPWCAtIEcxMB4XDTIwMTIxMTEwMDAwMFoXDTIzMTIxMTEwMDAwMFow\ncTELMAkGA1UEBhMCQlIxHDAaBgNVBAoTE09wZW4gQmFua2luZyBCcmFzaWwxFTAT\nBgNVBAsTDE9wZW4gQmFua2luZzEtMCsGA1UEAxMkT3BlbiBCYW5raW5nIFNBTkRC\nT1ggSXNzdWluZyBDQSAtIEcxMIIBIjANBgkqhkiG9w0BAQEFAAOCAQ8AMIIBCgKC\nAQEA6fX+272mHX5QAcDaWkVHFWjnDIcORNUJU3OuNyeuOYhlvXJWydrXe3O+cV+P\nS39faMj/nfem3GfJBE7Xn0bWA/8ksxSfrg1BUBJDge4YBBw+VflI3A0g1fk9wJ3H\nGInsvV4serRJ/ISJTfs0uRNugX+RrbkT/T0tup4vGd3Kl2sbwUdDjokuJNJHANeO\nDRkQ+ra+9Wht71FBlc07yPf7qtpaWHm6aS3s47OJD35ixkG4xiZuHsScxcVtlo1V\nW98P2cQfH9H2lll4wWlPTVHpPThB2EYrPhwcxDh8kHkkOHNkyHO/fYM47u7H4VeQ\nV75LXWKa7iWmZg+WhFb8TXSr/wIDAQABo4H/MIH8MA4GA1UdDwEB/wQEAwIBBjAP\nBgNVHRMBAf8EBTADAQH/MB0GA1UdDgQWBBSGf1itF/WCtk60BbP7sM4RQ99MvjAf\nBgNVHSMEGDAWgBSHE+yWPmLsIRwMSlY68iUM45TpyzBMBggrBgEFBQcBAQRAMD4w\nPAYIKwYBBQUHMAGGMGh0dHA6Ly9vY3NwLnNhbmRib3gucGtpLm9wZW5iYW5raW5n\nYnJhc2lsLm9yZy5icjBLBgNVHR8ERDBCMECgPqA8hjpodHRwOi8vY3JsLnNhbmRi\nb3gucGtpLm9wZW5iYW5raW5nYnJhc2lsLm9yZy5ici9pc3N1ZXIuY3JsMA0GCSqG\nSIb3DQEBCwUAA4IBAQBy4928pVPeiHItbneeOAsDoc4Obv5Q4tn0QpqTlSeCSBbH\nIURfEr/WaS8sv0JTbIPQEfiO/UtaN8Qxh7j5iVqTwTwgVaE/vDkHxGOen5YxAuyV\n1Fpm4W4oQyybiA6puHEBcteuiYZHppGSMus3bmFYTPE+9B0+W914VZeHDujJ2Y3Y\nMc32Q+PC+Zmv8RfaXp7+QCNYSXR5Ts3q3IesWGmlvAM5tLQi75JmzdWXJ1uKU4u3\nNrw5jY4UaOlvB5Re2BSmcjxdLT/5pApzkS+tO6lICnPAtk/Y6dOJ0YxQBMImtliY\np02yfwRaqP8WJ4CnwUHil3ZRt8U9I+psU8b4WV/3\n-----END CERTIFICATE-----\n-----BEGIN CERTIFICATE-----\nMIIDpjCCAo6gAwIBAgIUS3mWeRx1uG/SMl/ql55VwRtNz7wwDQYJKoZIhvcNAQEL\nBQAwazELMAkGA1UEBhMCQlIxHDAaBgNVBAoTE09wZW4gQmFua2luZyBCcmFzaWwx\nFTATBgNVBAsTDE9wZW4gQmFua2luZzEnMCUGA1UEAxMeT3BlbiBCYW5raW5nIFJv\nb3QgU0FOREJPWCAtIEcxMB4XDTIwMTIxMTEwMDAwMFoXDTI1MTIxMDEwMDAwMFow\nazELMAkGA1UEBhMCQlIxHDAaBgNVBAoTE09wZW4gQmFua2luZyBCcmFzaWwxFTAT\nBgNVBAsTDE9wZW4gQmFua2luZzEnMCUGA1UEAxMeT3BlbiBCYW5raW5nIFJvb3Qg\nU0FOREJPWCAtIEcxMIIBIjANBgkqhkiG9w0BAQEFAAOCAQ8AMIIBCgKCAQEAp50j\njNh0wu8ioziC1HuWqOfgXwxeiePiRGw5tKDqKIbC7XV1ghEcDiymTHHWWJSQ1LEs\nmYpZVwaos5Mrz2xJwytg8K5eqFqa7QvfOOul29bnzEFk+1gX/0nOYws3Lba9E7S+\nuPaUmfElF4r2lcCNL2f3F87RozqZf+DQBdGUzAt9n+ipY1JpqfI3KF/5qgRkPoIf\nJD+aj2Y1D6eYjs5uMRLU8FMYt0CCfv/Ak6mq4Y9/7CaMKp5qjlrrDux00IDpxoXG\nKx5cK0KgACb2UBZ98oDQxcGrbRIyp8VGmv68BkEQcm7NljP863uBVxtnVTpRwQ1x\nwYEbmSSyoonXy575wQIDAQABo0IwQDAOBgNVHQ8BAf8EBAMCAQYwDwYDVR0TAQH/\nBAUwAwEB/zAdBgNVHQ4EFgQUhxPslj5i7CEcDEpWOvIlDOOU6cswDQYJKoZIhvcN\nAQELBQADggEBAFoYqwoH7zvr4v0SQ/hWx/bWFRIcV/Rf6rEWGyT/moVAEjPbGH6t\nyHhbxh3RdGcPY7Pzn797lXDGRu0pHv+GAHUA1v1PewCp0IHYukmN5D8+Qumem6by\nHyONyUASMlY0lUOzx9mHVBMuj6u6kvn9xjL6xsPS+Cglv/3SUXUR0mMCYf963xnF\nBIRLTRlbykgJomUptVl/F5U/+8cD+lB/fcZPoQVI0kK0VV51jAODSIhS6vqzQzH4\ncpUmcPh4dy+7RzdTTktxOTXTqAy9/Yx+fk18O9qSQw1MKa9dDZ4YLnAQS2fJJqIE\n1DXIta0LpqM4pMoRMXvp9SLU0atVZLEu6Sc=\n-----END CERTIFICATE-----\n"
    },
    "browser": [
        {
            "match": "https://auth.mockbank.poc.raidiam.io/auth*",
            "tasks": [
                {
                    "task": "Login",
                    "optional": true,
                    "match": "https://auth.mockbank.poc.raidiam.io/interaction*",
                    "commands": [
                        [
                            "text",
                            "name",
                            "username",
                            "ralph.bragg@gmail.com",
                            "optional"
                        ],
                        [
                            "text",
                            "name",
                            "password",
                            "P@ssword01",
                            "optional"
                        ],
                        [
                            "click",
                            "xpath",
                            "//button[contains(text(),\"Sign in\")]",
                            "optional"
                        ]
                    ]
                },
                {
                    "task": "Consent",
                    "optional": true,
                    "match": "https://auth.mockbank.poc.raidiam.io/interaction*",
                    "commands": [
                        [
                            "wait",
                            "xpath",
                            "//*",
                            10,
                            ".*Before sharing your data, we need to confirm some information:*",
                            "update-image-placeholder-optional"
                        ],
                        [
                            "click",
                            "xpath",
                            "//label[@for='hidden-payments-291e5a29-49ed-401f-a583-193caa7aceee']/div[1]/div[1]"
                        ],
                        [
                            "click",
                            "id",
                            "consent"
                        ],
                        [
                            "click",
                            "id",
                            "continue"
                        ]
                    ]
                },
                {
                    "task": "Verify Complete",
                    "match": "*/test/*/callback*",
                    "commands": [
                        [
                            "wait",
                            "id",
                            "submission_complete",
                            10
                        ]
                    ]
                }
            ]
        }
    ],
    "override": {
        "payments-consents-api-proxy-email-proxy-test": {
            "resource": {
                "consentUrl": "https://matls-api.mockbank.poc.raidiam.io/open-banking/payments/v1/consents",
                "brazilPaymentConsent": {
                    "data": {
                        "loggedUser": {
                            "document": {
                                "identification": "76109277673",
                                "rel": "CPF"
                            }
                        },
                        "creditor": {
                            "personType": "PESSOA_NATURAL",
                            "cpfCnpj": "48847377765",
                            "name": "Marco Antonio de Brito"
                        },
                        "payment": {
                            "type": "PIX",
                            "date": "2021-01-01",
                            "currency": "BRL",
                            "amount": "20422.00",
                            "details": {
                                "localInstrument": "DICT",
                                "proxy": "12345678901",
                                "creditorAccount": {
                                    "ispb": "12345678",
                                    "issuer": "1774",
                                    "number": "1234567890",
                                    "accountType": "CACC"
                                }
                            }
                        },
                        "debtorAccount": {
                            "ispb": "12345678",
                            "issuer": "6272",
                            "number": "94088392",
                            "accountType": "CACC"
                        }
                    }
                },
                "brazilOrganizationId": "74e929d9-33b6-4d85-8ba7-c146c867a817",
                "brazilQrdnPaymentConsent": {
                    "data": {
                        "loggedUser": {
                            "document": {
                                "identification": "76109277673",
                                "rel": "CPF"
                            }
                        },
                        "creditor": {
                            "personType": "PESSOA_NATURAL",
                            "cpfCnpj": "48847377765",
                            "name": "Marco Antonio de Brito"
                        },
                        "payment": {
                            "type": "PIX",
                            "date": "2021-01-01",
                            "currency": "BRL",
                            "amount": "20422.00",
                            "igbeTownCode": "oiweowew",
                            "details": {
                                "localInstrument": "QRDN",
                                "proxy": "12345678902",
                                "qrCode": "00020126510014BR.GOV.BCB.PIX0129cliente-a00001@pix.bcb.gov.br5204000053039865802BR5910JOAO SILVA6014BELO HORIZONTE62070503***63042A73",
                                "creditorAccount": {
                                    "ispb": "12345678",
                                    "issuer": "1774",
                                    "number": "1234567890",
                                    "accountType": "CACC"
                                }
                            }
                        },
                        "debtorAccount": {
                            "ispb": "12345678",
                            "issuer": "6272",
                            "number": "94088392",
                            "accountType": "CACC"
                        }
                    }
                },
                "brazilQrdnCnpj": "43142666000197"
            }
        },
        "payments-api-proxy-fake-email-proxy-test": {
            "resource": {
                "consentUrl": "https://matls-api.mockbank.poc.raidiam.io/open-banking/payments/v1/consents",
                "brazilPaymentConsent": {
                    "data": {
                        "loggedUser": {
                            "document": {
                                "identification": "76109277673",
                                "rel": "CPF"
                            }
                        },
                        "creditor": {
                            "personType": "PESSOA_NATURAL",
                            "cpfCnpj": "48847377765",
                            "name": "Marco Antonio de Brito"
                        },
                        "payment": {
                            "type": "PIX",
                            "date": "2021-01-01",
                            "currency": "BRL",
                            "amount": "20422.00",
                            "details": {
                                "localInstrument": "DICT",
                                "proxy": "12345678901",
                                "creditorAccount": {
                                    "ispb": "12345678",
                                    "issuer": "1774",
                                    "number": "1234567890",
                                    "accountType": "CACC"
                                }
                            }
                        },
                        "debtorAccount": {
                            "ispb": "12345678",
                            "issuer": "6272",
                            "number": "94088392",
                            "accountType": "CACC"
                        }
                    }
                },
                "brazilOrganizationId": "74e929d9-33b6-4d85-8ba7-c146c867a817",
                "brazilQrdnPaymentConsent": {
                    "data": {
                        "loggedUser": {
                            "document": {
                                "identification": "76109277673",
                                "rel": "CPF"
                            }
                        },
                        "creditor": {
                            "personType": "PESSOA_NATURAL",
                            "cpfCnpj": "48847377765",
                            "name": "Marco Antonio de Brito"
                        },
                        "payment": {
                            "type": "PIX",
                            "date": "2021-01-01",
                            "currency": "BRL",
                            "amount": "20422.00",
                            "igbeTownCode": "oiweowew",
                            "details": {
                                "localInstrument": "QRDN",
                                "proxy": "12345678902",
                                "qrCode": "00020126510014BR.GOV.BCB.PIX0129cliente-a00001@pix.bcb.gov.br5204000053039865802BR5910JOAO SILVA6014BELO HORIZONTE62070503***63042A73",
                                "creditorAccount": {
                                    "ispb": "12345678",
                                    "issuer": "1774",
                                    "number": "1234567890",
                                    "accountType": "CACC"
                                }
                            }
                        },
                        "debtorAccount": {
                            "ispb": "12345678",
                            "issuer": "6272",
                            "number": "94088392",
                            "accountType": "CACC"
                        }
                    }
                },
                "brazilQrdnCnpj": "43142666000197"
            }
        },
        "payments-api-proxy-real-email-invalid-credior-proxy-test": {
            "resource": {
                "consentUrl": "https://matls-api.mockbank.poc.raidiam.io/open-banking/payments/v1/consents",
                "brazilPaymentConsent": {
                    "data": {
                        "loggedUser": {
                            "document": {
                                "identification": "76109277673",
                                "rel": "CPF"
                            }
                        },
                        "creditor": {
                            "personType": "PESSOA_NATURAL",
                            "cpfCnpj": "48847377765",
                            "name": "Marco Antonio de Brito"
                        },
                        "payment": {
                            "type": "PIX",
                            "date": "2021-01-01",
                            "currency": "BRL",
                            "amount": "20422.00",
                            "details": {
                                "localInstrument": "DICT",
                                "proxy": "12345678901",
                                "creditorAccount": {
                                    "ispb": "12345678",
                                    "issuer": "1774",
                                    "number": "1234567890",
                                    "accountType": "CACC"
                                }
                            }
                        },
                        "debtorAccount": {
                            "ispb": "12345678",
                            "issuer": "6272",
                            "number": "94088392",
                            "accountType": "CACC"
                        }
                    }
                },
                "brazilOrganizationId": "74e929d9-33b6-4d85-8ba7-c146c867a817",
                "brazilQrdnPaymentConsent": {
                    "data": {
                        "loggedUser": {
                            "document": {
                                "identification": "76109277673",
                                "rel": "CPF"
                            }
                        },
                        "creditor": {
                            "personType": "PESSOA_NATURAL",
                            "cpfCnpj": "48847377765",
                            "name": "Marco Antonio de Brito"
                        },
                        "payment": {
                            "type": "PIX",
                            "date": "2021-01-01",
                            "currency": "BRL",
                            "amount": "20422.00",
                            "igbeTownCode": "oiweowew",
                            "details": {
                                "localInstrument": "QRDN",
                                "proxy": "12345678902",
                                "qrCode": "00020126510014BR.GOV.BCB.PIX0129cliente-a00001@pix.bcb.gov.br5204000053039865802BR5910JOAO SILVA6014BELO HORIZONTE62070503***63042A73",
                                "creditorAccount": {
                                    "ispb": "12345678",
                                    "issuer": "1774",
                                    "number": "1234567890",
                                    "accountType": "CACC"
                                }
                            }
                        },
                        "debtorAccount": {
                            "ispb": "12345678",
                            "issuer": "6272",
                            "number": "94088392",
                            "accountType": "CACC"
                        }
                    }
                },
                "brazilQrdnCnpj": "43142666000197"
            }
        },
        "payments-api-proxy-test-incorrect-cpf": {
            "resource": {
                "consentUrl": "https://matls-api.mockbank.poc.raidiam.io/open-banking/payments/v1/consents",
                "brazilPaymentConsent": {
                    "data": {
                        "loggedUser": {
                            "document": {
                                "identification": "76109277673",
                                "rel": "CPF"
                            }
                        },
                        "creditor": {
                            "personType": "PESSOA_NATURAL",
                            "cpfCnpj": "48847377765",
                            "name": "Marco Antonio de Brito"
                        },
                        "payment": {
                            "type": "PIX",
                            "date": "2021-01-01",
                            "currency": "BRL",
                            "amount": "20201.00",
                            "details": {
                                "localInstrument": "DICT",
                                "proxy": "12345678901",
                                "creditorAccount": {
                                    "ispb": "12345678",
                                    "issuer": "1774",
                                    "number": "1234567890",
                                    "accountType": "CACC"
                                }
                            }
                        },
                        "debtorAccount": {
                            "ispb": "12345678",
                            "issuer": "6272",
                            "number": "94088392",
                            "accountType": "CACC"
                        }
                    }
                },
                "brazilOrganizationId": "74e929d9-33b6-4d85-8ba7-c146c867a817",
                "brazilQrdnPaymentConsent": {
                    "data": {
                        "loggedUser": {
                            "document": {
                                "identification": "76109277673",
                                "rel": "CPF"
                            }
                        },
                        "creditor": {
                            "personType": "PESSOA_NATURAL",
                            "cpfCnpj": "48847377765",
                            "name": "Marco Antonio de Brito"
                        },
                        "payment": {
                            "type": "PIX",
                            "date": "2021-01-01",
                            "currency": "BRL",
                            "amount": "20201.00",
                            "igbeTownCode": "oiweowew",
                            "details": {
                                "localInstrument": "QRDN",
                                "proxy": "12345678902",
                                "qrCode": "00020126510014BR.GOV.BCB.PIX0129cliente-a00001@pix.bcb.gov.br5204000053039865802BR5910JOAO SILVA6014BELO HORIZONTE62070503***63042A73",
                                "creditorAccount": {
                                    "ispb": "12345678",
                                    "issuer": "1774",
                                    "number": "1234567890",
                                    "accountType": "CACC"
                                }
                            }
                        },
                        "debtorAccount": {
                            "ispb": "12345678",
                            "issuer": "6272",
                            "number": "94088392",
                            "accountType": "CACC"
                        }
                    }
                },
                "brazilQrdnCnpj": "43142666000197"
            }
        }
    }
}
