{
    "payments_api_email-proxy_test-module": {
        "pixPaymentAmount": "9999.99"
    },
    "payments_api_qres-mismatched-proxy_test-module": {
        "pixPaymentAmount": "10422.01"
    },
    "payments_api_qrdn-with-qres-code_test-module": {
        "pixPaymentAmount": "{{10422.01}}"
    },
    "payments_api_qres-mismatched-consent_test-module": {
        "pixPaymentAmount": "20422.00"
    },
    "payments_api_qres-with-transaction-identifier_test-module": {
        "pixPaymentAmount": "1333.00"
    },
    "payments_api_invalid-email-proxy_test-module": {
        "pixPaymentAmount": "20201.00"
    },
    "payments_api_invalid-creditor-proxy_test-module": {
        "pixPaymentAmount": "20422.00"
    },
    "payments_api_incorrect-cpf_test-module": {
        "pixPaymentAmount": "10422.01"
    },
    "payments_api_qrdn-good-proxy_test-module": {
        "pixPaymentAmount": "1333",
        "qrdnAmount": "20201.00"
    },
    "payments_api_qres-wrong-amount-proxy_test-module": {
        "pixPaymentAmount": "10422.01"
    },
    "payments_api_consumed-consent_test-module": {
        "pixPaymentAmount": "9999.99"
    }
}
